[
  {
    "_id": "5ccbfce101bc6362af20dc56",
    "index": 0,
    "guid": "b64828e0-0948-44d3-bd83-23c101395039",
    "isActive": false,
    "balance": "$3,247.75",
    "picture": "http://placehold.it/32x32",
    "age": 34,
    "eyeColor": "brown",
    "name": "Pamela Vaughan",
    "gender": "female",
    "company": "ATGEN",
    "email": "pamelavaughan@atgen.com",
    "phone": "+1 (838) 440-2457",
    "address": "287 Cherry Street, Sabillasville, Kansas, 2515",
    "about": "Quis minim ad anim pariatur exercitation et aute dolor. Et labore est aliqua nisi minim est cupidatat ullamco. Commodo dolor incididunt aliquip exercitation nostrud sunt quis est ad ea officia duis officia.\r\n",
    "registered": "2017-03-18T10:42:10 -02:00",
    "latitude": -87.915295,
    "longitude": 130.763495,
    "tags": [
      "quis",
      "ipsum",
      "ea",
      "cillum",
      "fugiat",
      "irure",
      "mollit"
    ],
    "friends": [
      {
        "id": 0,
        "name": "Boyd Mccoy"
      },
      {
        "id": 1,
        "name": "Pratt Ruiz"
      },
      {
        "id": 2,
        "name": "Patrica Miranda"
      }
    ],
    "greeting": "Hello, Pamela Vaughan! You have 10 unread messages.",
    "favoriteFruit": "apple"
  },
  {
    "_id": "5ccbfce1f04d66c221405c1e",
    "index": 1,
    "guid": "e3321d2c-e86e-4fd3-8f5c-cd6d8f3383e9",
    "isActive": true,
    "balance": "$3,462.91",
    "picture": "http://placehold.it/32x32",
    "age": 22,
    "eyeColor": "blue",
    "name": "Silva Powell",
    "gender": "male",
    "company": "POLARIUM",
    "email": "silvapowell@polarium.com",
    "phone": "+1 (816) 439-3845",
    "address": "950 Douglass Street, Healy, New York, 5940",
    "about": "Do ullamco proident voluptate non nisi commodo. Ullamco ea esse qui duis ut nostrud. Culpa pariatur ut do laboris velit id nostrud aliquip. Eu culpa qui cupidatat occaecat deserunt ut non do. Amet amet est laborum ut. Dolor amet ea nisi quis dolor ex exercitation dolor. Laborum amet adipisicing cupidatat laboris mollit.\r\n",
    "registered": "2017-09-06T01:14:59 -03:00",
    "latitude": 29.483629,
    "longitude": -68.32645,
    "tags": [
      "laboris",
      "nostrud",
      "nulla",
      "mollit",
      "ut",
      "ut",
      "magna"
    ],
    "friends": [
      {
        "id": 0,
        "name": "Ola Roberts"
      },
      {
        "id": 1,
        "name": "Hancock Gilliam"
      },
      {
        "id": 2,
        "name": "Mueller Carrillo"
      }
    ],
    "greeting": "Hello, Silva Powell! You have 10 unread messages.",
    "favoriteFruit": "apple"
  },
  {
    "_id": "5ccbfce1dac62dda725dadc6",
    "index": 2,
    "guid": "1c5b7b73-77e5-4fb9-aaba-c398e00c87e6",
    "isActive": false,
    "balance": "$3,631.12",
    "picture": "http://placehold.it/32x32",
    "age": 34,
    "eyeColor": "green",
    "name": "Suarez Peterson",
    "gender": "male",
    "company": "HALAP",
    "email": "suarezpeterson@halap.com",
    "phone": "+1 (918) 432-2480",
    "address": "366 Saratoga Avenue, Ladera, Georgia, 5517",
    "about": "Enim laboris proident pariatur ea occaecat in id eiusmod cupidatat mollit do veniam. Qui dolor anim commodo excepteur Lorem. Amet excepteur est incididunt laborum eiusmod cupidatat elit sint.\r\n",
    "registered": "2017-10-10T08:07:57 -03:00",
    "latitude": -50.714433,
    "longitude": -109.918377,
    "tags": [
      "deserunt",
      "aliqua",
      "do",
      "do",
      "quis",
      "nulla",
      "excepteur"
    ],
    "friends": [
      {
        "id": 0,
        "name": "Rutledge Lee"
      },
      {
        "id": 1,
        "name": "Simpson Bailey"
      },
      {
        "id": 2,
        "name": "Potter Sandoval"
      }
    ],
    "greeting": "Hello, Suarez Peterson! You have 6 unread messages.",
    "favoriteFruit": "apple"
  },
  {
    "_id": "5ccbfce1e8f01552f76022c3",
    "index": 3,
    "guid": "57a33b73-aa7a-4947-8985-db173a190188",
    "isActive": false,
    "balance": "$3,778.54",
    "picture": "http://placehold.it/32x32",
    "age": 20,
    "eyeColor": "brown",
    "name": "Ella Hendricks",
    "gender": "female",
    "company": "BULLJUICE",
    "email": "ellahendricks@bulljuice.com",
    "phone": "+1 (827) 600-3154",
    "address": "165 Pierrepont Street, Cannondale, Oklahoma, 4262",
    "about": "Sint anim laboris id tempor labore velit. Voluptate deserunt veniam labore sunt dolore Lorem. Et ipsum ut culpa deserunt consequat sint dolor.\r\n",
    "registered": "2018-03-31T06:43:56 -03:00",
    "latitude": 54.401771,
    "longitude": 68.760754,
    "tags": [
      "in",
      "voluptate",
      "tempor",
      "laborum",
      "exercitation",
      "veniam",
      "officia"
    ],
    "friends": [
      {
        "id": 0,
        "name": "Conner Morin"
      },
      {
        "id": 1,
        "name": "Floyd Meyer"
      },
      {
        "id": 2,
        "name": "Rose Hayden"
      }
    ],
    "greeting": "Hello, Ella Hendricks! You have 10 unread messages.",
    "favoriteFruit": "apple"
  },
  {
    "_id": "5ccbfce1a4ce4fec821b3a23",
    "index": 4,
    "guid": "f90bdab4-7969-460d-9750-9f465956d021",
    "isActive": true,
    "balance": "$1,234.22",
    "picture": "http://placehold.it/32x32",
    "age": 22,
    "eyeColor": "blue",
    "name": "Wanda Hopper",
    "gender": "female",
    "company": "EMTRAK",
    "email": "wandahopper@emtrak.com",
    "phone": "+1 (844) 416-3068",
    "address": "691 Battery Avenue, Emerald, New Mexico, 9561",
    "about": "Occaecat elit ut eu aliqua incididunt consequat aliquip deserunt commodo dolor. Eu et cillum aute consectetur do amet ea qui eu esse est. Exercitation fugiat ad nisi qui aliqua tempor ut officia id. Dolor incididunt dolor qui dolore ut incididunt amet laborum. Elit eiusmod nulla aliqua labore in culpa nulla elit quis qui. Ad non commodo consequat aliquip cillum laboris consequat mollit amet nostrud in Lorem officia. Et duis ex cillum culpa culpa esse et cillum anim cupidatat commodo.\r\n",
    "registered": "2018-11-16T04:40:22 -02:00",
    "latitude": -0.950579,
    "longitude": -36.860207,
    "tags": [
      "laboris",
      "exercitation",
      "et",
      "proident",
      "mollit",
      "minim",
      "mollit"
    ],
    "friends": [
      {
        "id": 0,
        "name": "Acosta Boyd"
      },
      {
        "id": 1,
        "name": "Della Michael"
      },
      {
        "id": 2,
        "name": "Lourdes Gay"
      }
    ],
    "greeting": "Hello, Wanda Hopper! You have 4 unread messages.",
    "favoriteFruit": "strawberry"
  },
  {
    "_id": "5ccbfce1ade44d20d44347e4",
    "index": 5,
    "guid": "d94af86b-8622-4444-bf52-853640055669",
    "isActive": false,
    "balance": "$3,298.56",
    "picture": "http://placehold.it/32x32",
    "age": 39,
    "eyeColor": "green",
    "name": "Weiss Hall",
    "gender": "male",
    "company": "COMTREK",
    "email": "weisshall@comtrek.com",
    "phone": "+1 (802) 421-3644",
    "address": "563 Conselyea Street, Alafaya, South Dakota, 1235",
    "about": "Sunt nisi minim deserunt duis officia nostrud irure ullamco mollit irure nulla ea. In excepteur laboris eu sunt aliquip. Occaecat sint ut deserunt laboris et commodo eu. Amet ullamco nisi eiusmod duis occaecat est mollit consequat Lorem.\r\n",
    "registered": "2016-05-25T06:45:37 -03:00",
    "latitude": -32.133927,
    "longitude": 176.235933,
    "tags": [
      "duis",
      "officia",
      "mollit",
      "et",
      "aliqua",
      "culpa",
      "adipisicing"
    ],
    "friends": [
      {
        "id": 0,
        "name": "Dona Watson"
      },
      {
        "id": 1,
        "name": "Combs Clemons"
      },
      {
        "id": 2,
        "name": "Madden Barry"
      }
    ],
    "greeting": "Hello, Weiss Hall! You have 3 unread messages.",
    "favoriteFruit": "banana"
  },
  {
    "_id": "5ccbfce1209f77c2fd6f9142",
    "index": 6,
    "guid": "d686bce9-3235-48d6-adcf-00a9bcc23232",
    "isActive": false,
    "balance": "$1,827.56",
    "picture": "http://placehold.it/32x32",
    "age": 32,
    "eyeColor": "blue",
    "name": "Forbes Thomas",
    "gender": "male",
    "company": "PRIMORDIA",
    "email": "forbesthomas@primordia.com",
    "phone": "+1 (991) 466-2717",
    "address": "201 Downing Street, Clinton, Alaska, 2896",
    "about": "Veniam fugiat dolor occaecat tempor laborum. Et laborum anim consequat id ut. Nisi in nulla non deserunt voluptate dolore eiusmod ipsum tempor culpa amet cupidatat elit aliquip. Occaecat aliqua est ad laboris veniam in enim ullamco ipsum est proident aliquip do id. Amet magna voluptate laboris eu cillum nisi nulla nulla est voluptate ipsum excepteur ullamco cupidatat. Minim ea elit nulla ea incididunt duis cillum veniam nulla velit quis. Adipisicing ipsum ut laborum labore adipisicing labore cupidatat Lorem sit do quis fugiat non.\r\n",
    "registered": "2018-10-28T08:00:37 -02:00",
    "latitude": -87.404367,
    "longitude": -83.935907,
    "tags": [
      "commodo",
      "ullamco",
      "do",
      "ut",
      "non",
      "amet",
      "voluptate"
    ],
    "friends": [
      {
        "id": 0,
        "name": "Flores Holcomb"
      },
      {
        "id": 1,
        "name": "Hansen Salazar"
      },
      {
        "id": 2,
        "name": "Salas Massey"
      }
    ],
    "greeting": "Hello, Forbes Thomas! You have 4 unread messages.",
    "favoriteFruit": "apple"
  }
]